Lab06/cocotb/waveform.vcd
$date
	Thu Mar 20 19:05:59 2025
$end
$version
	Icarus Verilog
$end
$timescale
	1ps
$end
$scope module SingleCycleCPU $end
$var wire 4 ! an [3:0] $end
$var wire 1 " clk $end
$var wire 8 # segments [7:0] $end
$var wire 1 $ start $end
$var wire 32 % writeData [31:0] $end
$var wire 5 & rs2 [4:0] $end
$var wire 5 ' rs1 [4:0] $end
$var wire 1 ( regWrite $end
$var wire 32 ) regData2 [31:0] $end
$var wire 32 * regData1 [31:0] $end
$var wire 5 + rd [4:0] $end
$var wire 1 , pcSel $end
$var wire 32 - pcPlus4 [31:0] $end
$var wire 32 . pcNext [31:0] $end
$var wire 32 / pc [31:0] $end
$var wire 7 0 opcode [6:0] $end
$var wire 2 1 memtoReg [1:0] $end
$var wire 1 2 memWrite $end
$var wire 32 3 memReadData [31:0] $end
$var wire 1 4 memRead $end
$var wire 32 5 inst [31:0] $end
$var wire 32 6 imm [31:0] $end
$var wire 7 7 funct7 [6:0] $end
$var wire 3 8 funct3 [2:0] $end
$var wire 1 9 brLt $end
$var wire 1 : brEq $end
$var wire 1 ; aluSrc2 $end
$var wire 1 < aluSrc1 $end
$var wire 32 = aluResult [31:0] $end
$var wire 32 > aluIn2 [31:0] $end
$var wire 32 ? aluIn1 [31:0] $end
$var wire 3 @ aluCtrl [2:0] $end
$var wire 4 A ALUCtl [3:0] $end
$scope module m_ALU $end
$var wire 32 B nextPc [31:0] $end
$var wire 1 9 brLt $end
$var wire 1 : brEq $end
$var wire 32 C B [31:0] $end
$var wire 4 D ALUctl [3:0] $end
$var wire 32 E A [31:0] $end
$var parameter 4 F ALU_BR_BEQ $end
$var parameter 4 G ALU_BR_BGE $end
$var parameter 4 H ALU_BR_BLT $end
$var parameter 4 I ALU_BR_BNE $end
$var parameter 4 J ALU_CTL_AND $end
$var parameter 4 K ALU_CTL_MINUS $end
$var parameter 4 L ALU_CTL_OR $end
$var parameter 4 M ALU_CTL_PLUS $end
$var parameter 4 N ALU_CTL_SLT $end
$var reg 32 O ALUOut [31:0] $end
$upscope $end
$scope module m_ALUCtrl $end
$var wire 3 P funct3 [2:0] $end
$var wire 1 Q funct7 $end
$var wire 3 R ALUOp [2:0] $end
$var parameter 4 S ALU_BR_BEQ $end
$var parameter 4 T ALU_BR_BGE $end
$var parameter 4 U ALU_BR_BLT $end
$var parameter 4 V ALU_BR_BNE $end
$var parameter 3 W ALU_COMPUTE_BRANCH_ADDR $end
$var parameter 3 X ALU_COMPUTE_JUMPR_ADDR $end
$var parameter 3 Y ALU_COMPUTE_JUMP_ADDR $end
$var parameter 3 Z ALU_COMPUTE_MEM_ADDR $end
$var parameter 4 [ ALU_CTL_AND $end
$var parameter 4 \ ALU_CTL_MINUS $end
$var parameter 4 ] ALU_CTL_OR $end
$var parameter 4 ^ ALU_CTL_PLUS $end
$var parameter 4 _ ALU_CTL_SLT $end
$var parameter 3 ` ALU_OP $end
$var parameter 3 a ALU_OP_I $end
$var parameter 3 b BEQ_RAW_FUCT3 $end
$var reg 4 c ALUCtl [3:0] $end
$upscope $end
$scope module m_Adder_1 $end
$var wire 32 d b [31:0] $end
$var wire 32 e sum [31:0] $end
$var wire 32 f a [31:0] $end
$upscope $end
$scope module m_BranchComp $end
$var wire 32 g rs2 [31:0] $end
$var wire 32 h rs1 [31:0] $end
$var wire 1 9 brLt $end
$var wire 1 : brEq $end
$upscope $end
$scope module m_Control $end
$var wire 7 i opcode [6:0] $end
$var reg 3 j ALUOp [2:0] $end
$var reg 1 < ALUSrc1 $end
$var reg 1 ; ALUSrc2 $end
$var reg 1 , PCSel $end
$var reg 1 4 memRead $end
$var reg 1 2 memWrite $end
$var reg 2 k memtoReg [1:0] $end
$var reg 1 ( regWrite $end
$upscope $end
$scope module m_DataMemory $end
$var wire 32 l address [31:0] $end
$var wire 1 " clk $end
$var wire 1 4 memRead $end
$var wire 1 2 memWrite $end
$var wire 1 $ rst $end
$var wire 32 m writeData [31:0] $end
$var reg 32 n readData [31:0] $end
$upscope $end
$scope module m_ImmGen $end
$var wire 7 o opcode [6:0] $end
$var wire 32 p inst [31:0] $end
$var parameter 7 q OP_BRANCH $end
$var parameter 7 r OP_I $end
$var parameter 7 s OP_JAL $end
$var parameter 7 t OP_JALR $end
$var parameter 7 u OP_LW $end
$var parameter 7 v OP_R $end
$var parameter 7 w OP_SW $end
$var reg 32 x imm [31:0] $end
$upscope $end
$scope module m_InstMem $end
$var wire 32 y readAddr [31:0] $end
$var wire 32 z inst [31:0] $end
$upscope $end
$scope module m_Mux_ALU_1 $end
$var wire 1 < sel $end
$var wire 32 { s1 [31:0] $end
$var wire 32 | s0 [31:0] $end
$var wire 32 } out [31:0] $end
$var parameter 32 ~ size $end
$upscope $end
$scope module m_Mux_ALU_2 $end
$var wire 32 !" s1 [31:0] $end
$var wire 1 ; sel $end
$var wire 32 "" s0 [31:0] $end
$var wire 32 #" out [31:0] $end
$var parameter 32 $" size $end
$upscope $end
$scope module m_Mux_PC $end
$var wire 32 %" s0 [31:0] $end
$var wire 32 &" s1 [31:0] $end
$var wire 1 , sel $end
$var wire 32 '" out [31:0] $end
$var parameter 32 (" size $end
$upscope $end
$scope module m_Mux_WriteData $end
$var wire 32 )" s0 [31:0] $end
$var wire 32 *" s1 [31:0] $end
$var wire 32 +" s2 [31:0] $end
$var wire 2 ," sel [1:0] $end
$var wire 32 -" out [31:0] $end
$var parameter 32 ." size $end
$upscope $end
$scope module m_PC $end
$var wire 1 " clk $end
$var wire 32 /" pc_i [31:0] $end
$var wire 1 $ rst $end
$var reg 32 0" pc_o [31:0] $end
$upscope $end
$scope module m_Register $end
$var wire 1 " clk $end
$var wire 32 1" readData1 [31:0] $end
$var wire 32 2" readData2 [31:0] $end
$var wire 5 3" readReg1 [4:0] $end
$var wire 5 4" readReg2 [4:0] $end
$var wire 32 5" reg5Data [31:0] $end
$var wire 1 ( regWrite $end
$var wire 1 $ rst $end
$var wire 32 6" writeData [31:0] $end
$var wire 5 7" writeReg [4:0] $end
$upscope $end
$upscope $end
$enddefinitions $end
$comment Show the parameter values. $end
$dumpall
b100000 ."
b100000 ("
b100000 $"
b100000 ~
b100011 w
b110011 v
b11 u
b1100111 t
b1101111 s
b10011 r
b1100011 q
b0 b
b110 a
b100 `
b10 _
b0 ^
b110 ]
b1000 \
b111 [
b0 Z
b11 Y
b101 X
b10 W
b1001 V
b1100 U
b1101 T
b1010 S
b10 N
b0 M
b110 L
b1000 K
b111 J
b1001 I
b1100 H
b1101 G
b1010 F
$end
#0
$dumpvars
b101 7"
b111 6"
b0 5"
b111 4"
b0 3"
b0 2"
b0 1"
b0 0"
b100 /"
b111 -"
b0 ,"
b100 +"
b0 *"
b111 )"
b100 '"
b111 &"
b100 %"
b111 #"
b0 ""
b111 !"
b0 }
b0 |
b0 {
b11100000000001010010011 z
b0 y
b111 x
b11100000000001010010011 p
b10011 o
b0 n
b0 m
b111 l
b0 k
b110 j
b10011 i
b0 h
b0 g
b0 f
b100 e
b100 d
b0 c
b110 R
0Q
b0 P
b111 O
b0 E
b0 D
b111 C
b100 B
b0 A
b110 @
b0 ?
b111 >
b111 =
0<
1;
1:
09
b0 8
b0 7
b111 6
b11100000000001010010011 5
04
b0 3
02
b0 1
b10011 0
b0 /
b100 .
b100 -
0,
b101 +
b0 *
b0 )
1(
b0 '
b111 &
b111 %
0$
bz #
1"
bz !
$end
#5000
0"
#10000
1"
#15000
b111 5"
0"
1$
#20000
b100 %
b100 -"
b100 6"
1Q
b1011 B
b111 ?
b111 E
b111 }
b100 =
b100 O
b100 l
b100 &"
b100 )"
b11111111111111111111111111111101 >
b11111111111111111111111111111101 C
b11111111111111111111111111111101 #"
b1 7
b11101 &
b11101 4"
0:
b111 *
b111 h
b111 |
b111 1"
b101 '
b101 3"
b11111111111111111111111111111101 6
b11111111111111111111111111111101 x
b11111111111111111111111111111101 !"
b11111111110100101000001010010011 5
b11111111110100101000001010010011 p
b11111111110100101000001010010011 z
b1000 .
b1000 '"
b1000 /"
b1000 -
b1000 e
b1000 %"
b1000 +"
b100 /
b100 f
b100 y
b100 {
b100 0"
1"
#25000
b1 %
b1 -"
b1 6"
b1 =
b1 O
b1 l
b1 &"
b1 )"
b1000 B
b100 ?
b100 E
b100 }
b100 *
b100 h
b100 |
b100 1"
b100 5"
0"
#30000
b11111111111111111111111111011011 %
b11111111111111111111111111011011 -"
b11111111111111111111111111011011 6"
b100 B
b0 ?
b0 E
b0 }
b11111111111111111111111111011011 =
b11111111111111111111111111011011 O
b11111111111111111111111111011011 l
b11111111111111111111111111011011 &"
b11111111111111111111111111011011 )"
b11111111111111111111111111011011 >
b11111111111111111111111111011011 C
b11111111111111111111111111011011 #"
b110 +
b110 7"
b11011 &
b11011 4"
1:
b0 *
b0 h
b0 |
b0 1"
b0 '
b0 3"
b11111111111111111111111111011011 6
b11111111111111111111111111011011 x
b11111111111111111111111111011011 !"
b11111101101100000000001100010011 5
b11111101101100000000001100010011 p
b11111101101100000000001100010011 z
b1100 .
b1100 '"
b1100 /"
b1100 -
b1100 e
b1100 %"
b1100 +"
b1000 /
b1000 f
b1000 y
b1000 {
b1000 0"
1"
#35000
0"
#40000
b10011 %
b10011 -"
b10011 6"
b10011 =
b10011 O
b10011 l
b10011 &"
b10011 )"
0Q
b10011 >
b10011 C
b10011 #"
b0 7
b111 +
b111 7"
b10011 &
b10011 4"
b10011 6
b10011 x
b10011 !"
b1001100000000001110010011 5
b1001100000000001110010011 p
b1001100000000001110010011 z
b10000 .
b10000 '"
b10000 /"
b10000 -
b10000 e
b10000 %"
b10000 +"
b1100 /
b1100 f
b1100 y
b1100 {
b1100 0"
1"
#45000
0"
#50000
b11 %
b11 -"
b11 6"
b111 A
b111 D
b111 c
b10111 B
b10011 ?
b10011 E
b10011 }
b11 =
b11 O
b11 l
b11 &"
b11 )"
b111 >
b111 C
b111 #"
b111 8
b111 P
b10011 )
b10011 g
b10011 m
b10011 ""
b10011 2"
b111 &
b111 4"
1:
b10011 *
b10011 h
b10011 |
b10011 1"
b111 '
b111 3"
b111 6
b111 x
b111 !"
b11100111111001110010011 5
b11100111111001110010011 p
b11100111111001110010011 z
b10100 .
b10100 '"
b10100 /"
b10100 -
b10100 e
b10100 %"
b10100 +"
b10000 /
b10000 f
b10000 y
b10000 {
b10000 0"
1"
#55000
b111 B
b11 ?
b11 E
b11 }
b11 *
b11 h
b11 |
b11 1"
1:
b11 )
b11 g
b11 m
b11 ""
b11 2"
0"
#60000
b10 %
b10 -"
b10 6"
1Q
b10 =
b10 O
b10 l
b10 &"
b10 )"
b11111111111111111111111111111110 >
b11111111111111111111111111111110 C
b11111111111111111111111111111110 #"
b1 7
b1000 +
b1000 7"
0:
b0 )
b0 g
b0 m
b0 ""
b0 2"
b11110 &
b11110 4"
b11111111111111111111111111111110 6
b11111111111111111111111111111110 x
b11111111111111111111111111111110 !"
b11111111111000111111010000010011 5
b11111111111000111111010000010011 p
b11111111111000111111010000010011 z
b11000 .
b11000 '"
b11000 /"
b11000 -
b11000 e
b11000 %"
b11000 +"
b10100 /
b10100 f
b10100 y
b10100 {
b10100 0"
1"
#65000
0"
#70000
b1101 %
b1101 -"
b1101 6"
0Q
b110 A
b110 D
b110 c
b100 B
b0 ?
b0 E
b0 }
b1101 =
b1101 O
b1101 l
b1101 &"
b1101 )"
b1101 >
b1101 C
b1101 #"
b0 7
b110 8
b110 P
b1001 +
b1001 7"
b1101 &
b1101 4"
1:
b0 *
b0 h
b0 |
b0 1"
b0 '
b0 3"
b1101 6
b1101 x
b1101 !"
b110100000110010010010011 5
b110100000110010010010011 p
b110100000110010010010011 z
b11100 .
b11100 '"
b11100 /"
b11100 -
b11100 e
b11100 %"
b11100 +"
b11000 /
b11000 f
b11000 y
b11000 {
b11000 0"
1"
#75000
0"
#80000
b11111111111111111111111111111111 %
b11111111111111111111111111111111 -"
b11111111111111111111111111111111 6"
1Q
b10001 B
b1101 ?
b1101 E
b1101 }
b11111111111111111111111111111111 =
b11111111111111111111111111111111 O
b11111111111111111111111111111111 l
b11111111111111111111111111111111 &"
b11111111111111111111111111111111 )"
b11111111111111111111111111111110 >
b11111111111111111111111111111110 C
b11111111111111111111111111111110 #"
b1 7
b1010 +
b1010 7"
b11110 &
b11110 4"
0:
b1101 *
b1101 h
b1101 |
b1101 1"
b1001 '
b1001 3"
b11111111111111111111111111111110 6
b11111111111111111111111111111110 x
b11111111111111111111111111111110 !"
b11111111111001001110010100010011 5
b11111111111001001110010100010011 p
b11111111111001001110010100010011 z
b100000 .
b100000 '"
b100000 /"
b100000 -
b100000 e
b100000 %"
b100000 +"
b11100 /
b11100 f
b11100 y
b11100 {
b11100 0"
1"
#85000
0"
#90000
bx %
bx -"
bx 6"
xQ
b0 A
b0 D
b0 c
bx B
bx ?
bx E
bx }
bx =
bx O
bx l
bx &"
bx )"
0(
0;
b0 @
b0 R
b0 j
bx >
bx C
bx #"
bx o
b0x 7
bx 8
bx P
bx +
bx 7"
bx )
bx g
bx m
bx ""
bx 2"
bx &
bx 4"
x9
x:
bx *
bx h
bx |
bx 1"
bx '
bx 3"
bx 0
bx i
bx 6
bx x
bx !"
bx 5
bx p
bx z
b100100 .
b100100 '"
b100100 /"
b100100 -
b100100 e
b100100 %"
b100100 +"
b100000 /
b100000 f
b100000 y
b100000 {
b100000 0"
1"
#95000
0"
#100000
b101000 .
b101000 '"
b101000 /"
b101000 -
b101000 e
b101000 %"
b101000 +"
b100100 /
b100100 f
b100100 y
b100100 {
b100100 0"
1"
#105001
1;
b1001101 6
b1001101 x
b1001101 !"
b0 A
b0 D
b0 c
b100 .
b100 '"
b100 /"
b110 @
b110 R
b110 j
1(
b100 -
b100 e
b100 %"
b100 +"
b0 /
b0 f
b0 y
b0 {
b0 0"
b0 5"
b1001101 %
b1001101 -"
b1001101 6"
b1001101 =
b1001101 O
b1001101 l
b1001101 &"
b1001101 )"
0Q
b1001101 >
b1001101 C
b1001101 #"
b100 B
b0 ?
b0 E
b0 }
b10011 o
b0 7
b0 8
b0 P
b101 +
b101 7"
09
1:
b0 )
b0 g
b0 m
b0 ""
b0 2"
b1101 &
b1101 4"
b0 *
b0 h
b0 |
b0 1"
b0 '
b0 3"
b10011 0
b10011 i
b100110100000000001010010011 5
b100110100000000001010010011 p
b100110100000000001010010011 z
0$
#110001
0"
#115001
1"
#120001
b1001101 5"
0"
1$
#125001
b101 %
b101 -"
b101 6"
b101 =
b101 O
b101 l
b101 &"
b101 )"
b101 >
b101 C
b101 #"
b110 +
b110 7"
19
0:
b1001101 )
b1001101 g
b1001101 m
b1001101 ""
b1001101 2"
b101 &
b101 4"
b101 6
b101 x
b101 !"
b10100000000001100010011 5
b10100000000001100010011 p
b10100000000001100010011 z
b1000 .
b1000 '"
b1000 /"
b1000 -
b1000 e
b1000 %"
b1000 +"
b100 /
b100 f
b100 y
b100 {
b100 0"
1"
#130001
0"
#135001
b11111111111111111111111111111011 %
b11111111111111111111111111111011 -"
b11111111111111111111111111111011 6"
1Q
b11111111111111111111111111111011 =
b11111111111111111111111111111011 O
b11111111111111111111111111111011 l
b11111111111111111111111111111011 &"
b11111111111111111111111111111011 )"
b11111111111111111111111111111011 >
b11111111111111111111111111111011 C
b11111111111111111111111111111011 #"
b1 7
b111 +
b111 7"
09
1:
b0 )
b0 g
b0 m
b0 ""
b0 2"
b11011 &
b11011 4"
b11111111111111111111111111111011 6
b11111111111111111111111111111011 x
b11111111111111111111111111111011 !"
b11111111101100000000001110010011 5
b11111111101100000000001110010011 p
b11111111101100000000001110010011 z
b1100 .
b1100 '"
b1100 /"
b1100 -
b1100 e
b1100 %"
b1100 +"
b1000 /
b1000 f
b1000 y
b1000 {
b1000 0"
1"
#140001
0"
#145001
b1010010 %
b1010010 -"
b1010010 6"
0Q
b1010001 B
b1001101 ?
b1001101 E
b1001101 }
b1010010 =
b1010010 O
b1010010 l
b1010010 &"
b1010010 )"
1(
0;
b100 @
b100 R
b100 j
b101 >
b101 C
b101 #"
b110011 o
b0 7
b1000 +
b1000 7"
b101 )
b101 g
b101 m
b101 ""
b101 2"
b110 &
b110 4"
0:
b1001101 *
b1001101 h
b1001101 |
b1001101 1"
b101 '
b101 3"
b110011 0
b110011 i
b110 6
b110 x
b110 !"
b11000101000010000110011 5
b11000101000010000110011 p
b11000101000010000110011 z
b10000 .
b10000 '"
b10000 /"
b10000 -
b10000 e
b10000 %"
b10000 +"
b1100 /
b1100 f
b1100 y
b1100 {
b1100 0"
1"
#150001
0"
#155001
b1001000 %
b1001000 -"
b1001000 6"
b1001000 =
b1001000 O
b1001000 l
b1001000 &"
b1001000 )"
b11111111111111111111111111111011 >
b11111111111111111111111111111011 C
b11111111111111111111111111111011 #"
b1001 +
b1001 7"
b11111111111111111111111111111011 )
b11111111111111111111111111111011 g
b11111111111111111111111111111011 m
b11111111111111111111111111111011 ""
b11111111111111111111111111111011 2"
b111 &
b111 4"
b11100101000010010110011 5
b11100101000010010110011 p
b11100101000010010110011 z
b10100 .
b10100 '"
b10100 /"
b10100 -
b10100 e
b10100 %"
b10100 +"
b10000 /
b10000 f
b10000 y
b10000 {
b10000 0"
1"
#160001
0"
#165001
b1001000 %
b1001000 -"
b1001000 6"
b1000 A
b1000 D
b1000 c
b1001000 =
b1001000 O
b1001000 l
b1001000 &"
b1001000 )"
1Q
b101 >
b101 C
b101 #"
b1 7
b1010 +
b1010 7"
b101 )
b101 g
b101 m
b101 ""
b101 2"
b110 &
b110 4"
b1000000011000101000010100110011 5
b1000000011000101000010100110011 p
b1000000011000101000010100110011 z
b11000 .
b11000 '"
b11000 /"
b11000 -
b11000 e
b11000 %"
b11000 +"
b10100 /
b10100 f
b10100 y
b10100 {
b10100 0"
1"
#170001
0"
#175001
b1010010 %
b1010010 -"
b1010010 6"
b1010010 =
b1010010 O
b1010010 l
b1010010 &"
b1010010 )"
b11111111111111111111111111111011 >
b11111111111111111111111111111011 C
b11111111111111111111111111111011 #"
b1011 +
b1011 7"
b11111111111111111111111111111011 )
b11111111111111111111111111111011 g
b11111111111111111111111111111011 m
b11111111111111111111111111111011 ""
b11111111111111111111111111111011 2"
b111 &
b111 4"
b1000000011100101000010110110011 5
b1000000011100101000010110110011 p
b1000000011100101000010110110011 z
b11100 .
b11100 '"
b11100 /"
b11100 -
b11100 e
b11100 %"
b11100 +"
b11000 /
b11000 f
b11000 y
b11000 {
b11000 0"
1"
#180001
0"
#185001
b101 %
b101 -"
b101 6"
b101 =
b101 O
b101 l
b101 &"
b101 )"
0Q
b111 A
b111 D
b111 c
b101 >
b101 C
b101 #"
b0 7
b111 8
b111 P
b1100 +
b1100 7"
b101 )
b101 g
b101 m
b101 ""
b101 2"
b110 &
b110 4"
b11000101111011000110011 5
b11000101111011000110011 p
b11000101111011000110011 z
b100000 .
b100000 '"
b100000 /"
b100000 -
b100000 e
b100000 %"
b100000 +"
b11100 /
b11100 f
b11100 y
b11100 {
b11100 0"
1"
#190001
0"
#195001
b1001001 %
b1001001 -"
b1001001 6"
b1001001 =
b1001001 O
b1001001 l
b1001001 &"
b1001001 )"
b11111111111111111111111111111011 >
b11111111111111111111111111111011 C
b11111111111111111111111111111011 #"
b1101 +
b1101 7"
b11111111111111111111111111111011 )
b11111111111111111111111111111011 g
b11111111111111111111111111111011 m
b11111111111111111111111111111011 ""
b11111111111111111111111111111011 2"
b111 &
b111 4"
b11100101111011010110011 5
b11100101111011010110011 p
b11100101111011010110011 z
b100100 .
b100100 '"
b100100 /"
b100100 -
b100100 e
b100100 %"
b100100 +"
b100000 /
b100000 f
b100000 y
b100000 {
b100000 0"
1"
#200001
0"
#205001
b1001101 %
b1001101 -"
b1001101 6"
b1001101 =
b1001101 O
b1001101 l
b1001101 &"
b1001101 )"
b110 A
b110 D
b110 c
b101 >
b101 C
b101 #"
b110 8
b110 P
b1110 +
b1110 7"
b101 )
b101 g
b101 m
b101 ""
b101 2"
b110 &
b110 4"
b11000101110011100110011 5
b11000101110011100110011 p
b11000101110011100110011 z
b101000 .
b101000 '"
b101000 /"
b101000 -
b101000 e
b101000 %"
b101000 +"
b100100 /
b100100 f
b100100 y
b100100 {
b100100 0"
1"
#210001
0"
#215001
b11111111111111111111111111111111 %
b11111111111111111111111111111111 -"
b11111111111111111111111111111111 6"
b11111111111111111111111111111111 =
b11111111111111111111111111111111 O
b11111111111111111111111111111111 l
b11111111111111111111111111111111 &"
b11111111111111111111111111111111 )"
b11111111111111111111111111111011 >
b11111111111111111111111111111011 C
b11111111111111111111111111111011 #"
b1111 +
b1111 7"
b11111111111111111111111111111011 )
b11111111111111111111111111111011 g
b11111111111111111111111111111011 m
b11111111111111111111111111111011 ""
b11111111111111111111111111111011 2"
b111 &
b111 4"
b11100101110011110110011 5
b11100101110011110110011 p
b11100101110011110110011 z
b101100 .
b101100 '"
b101100 /"
b101100 -
b101100 e
b101100 %"
b101100 +"
b101000 /
b101000 f
b101000 y
b101000 {
b101000 0"
1"
#220001
0"
#225001
bx %
bx -"
bx 6"
bx =
bx O
bx l
bx &"
bx )"
xQ
b0 A
b0 D
b0 c
bx >
bx C
bx #"
bx B
bx ?
bx E
bx }
0(
b0 @
b0 R
b0 j
bx o
b0x 7
bx 8
bx P
bx +
bx 7"
bx )
bx g
bx m
bx ""
bx 2"
bx &
bx 4"
x9
x:
bx *
bx h
bx |
bx 1"
bx '
bx 3"
bx 0
bx i
bx 5
bx p
bx z
b110000 .
b110000 '"
b110000 /"
b110000 -
b110000 e
b110000 %"
b110000 +"
b101100 /
b101100 f
b101100 y
b101100 {
b101100 0"
1"
#230001
0"
#235001
b110100 .
b110100 '"
b110100 /"
b110100 -
b110100 e
b110100 %"
b110100 +"
b110000 /
b110000 f
b110000 y
b110000 {
b110000 0"
1"
#240002
b0 A
b0 D
b0 c
b100 .
b100 '"
b100 /"
b110 @
b110 R
b110 j
1(
1;
b100 -
b100 e
b100 %"
b100 +"
b0 /
b0 f
b0 y
b0 {
b0 0"
b0 5"
b101011 %
b101011 -"
b101011 6"
b101011 =
b101011 O
b101011 l
b101011 &"
b101011 )"
b101011 6
b101011 x
b101011 !"
0Q
b101011 >
b101011 C
b101011 #"
b100 B
b0 ?
b0 E
b0 }
b10011 o
b0 7
b0 8
b0 P
b101 +
b101 7"
09
1:
b0 )
b0 g
b0 m
b0 ""
b0 2"
b1011 &
b1011 4"
b0 *
b0 h
b0 |
b0 1"
b0 '
b0 3"
b10011 0
b10011 i
b10101100000000001010010011 5
b10101100000000001010010011 p
b10101100000000001010010011 z
0$
#245002
0"
#250002
1"
#255002
b101011 5"
0"
1$
#260002
b10100 %
b10100 -"
b10100 6"
b10100 =
b10100 O
b10100 l
b10100 &"
b10100 )"
b10100 >
b10100 C
b10100 #"
b110 +
b110 7"
b10100 &
b10100 4"
b10100 6
b10100 x
b10100 !"
b1010000000000001100010011 5
b1010000000000001100010011 p
b1010000000000001100010011 z
b1000 .
b1000 '"
b1000 /"
b1000 -
b1000 e
b1000 %"
b1000 +"
b100 /
b100 f
b100 y
b100 {
b100 0"
1"
#265002
0"
#270002
b11111111111111111111111111110110 %
b11111111111111111111111111110110 -"
b11111111111111111111111111110110 6"
b11111111111111111111111111110110 =
b11111111111111111111111111110110 O
b11111111111111111111111111110110 l
b11111111111111111111111111110110 &"
b11111111111111111111111111110110 )"
1Q
b11111111111111111111111111110110 >
b11111111111111111111111111110110 C
b11111111111111111111111111110110 #"
b1 7
b111 +
b111 7"
b10110 &
b10110 4"
b11111111111111111111111111110110 6
b11111111111111111111111111110110 x
b11111111111111111111111111110110 !"
b11111111011000000000001110010011 5
b11111111011000000000001110010011 p
b11111111011000000000001110010011 z
b1100 .
b1100 '"
b1100 /"
b1100 -
b1100 e
b1100 %"
b1100 +"
b1000 /
b1000 f
b1000 y
b1000 {
b1000 0"
1"
#275002
0"
#280002
b11111111111111111111111111101010 %
b11111111111111111111111111101010 -"
b11111111111111111111111111101010 6"
b11111111111111111111111111101010 =
b11111111111111111111111111101010 O
b11111111111111111111111111101010 l
b11111111111111111111111111101010 &"
b11111111111111111111111111101010 )"
b11111111111111111111111111101010 >
b11111111111111111111111111101010 C
b11111111111111111111111111101010 #"
b1000 +
b1000 7"
b1010 &
b1010 4"
b11111111111111111111111111101010 6
b11111111111111111111111111101010 x
b11111111111111111111111111101010 !"
b11111110101000000000010000010011 5
b11111110101000000000010000010011 p
b11111110101000000000010000010011 z
b10000 .
b10000 '"
b10000 /"
b10000 -
b10000 e
b10000 %"
b10000 +"
b1100 /
b1100 f
b1100 y
b1100 {
b1100 0"
1"
#285002
0"
#290002
b10 A
b10 D
b10 c
b0 %
b0 -"
b0 6"
0Q
b101111 B
b101011 ?
b101011 E
b101011 }
b0 =
b0 O
b0 l
b0 &"
b0 )"
1(
0;
b100 @
b100 R
b100 j
b10100 >
b10100 C
b10100 #"
b110011 o
b0 7
b10 8
b10 P
b1001 +
b1001 7"
b10100 )
b10100 g
b10100 m
b10100 ""
b10100 2"
b110 &
b110 4"
0:
b101011 *
b101011 h
b101011 |
b101011 1"
b101 '
b101 3"
b110011 0
b110011 i
b110 6
b110 x
b110 !"
b11000101010010010110011 5
b11000101010010010110011 p
b11000101010010010110011 z
b10100 .
b10100 '"
b10100 /"
b10100 -
b10100 e
b10100 %"
b10100 +"
b10000 /
b10000 f
b10000 y
b10000 {
b10000 0"
1"
#295002
0"
#300002
b1 %
b1 -"
b1 6"
b1 =
b1 O
b1 l
b1 &"
b1 )"
b101011 >
b101011 C
b101011 #"
b11000 B
b10100 ?
b10100 E
b10100 }
b1010 +
b1010 7"
19
b101011 )
b101011 g
b101011 m
b101011 ""
b101011 2"
b101 &
b101 4"
0:
b10100 *
b10100 h
b10100 |
b10100 1"
b110 '
b110 3"
b10100110010010100110011 5
b10100110010010100110011 p
b10100110010010100110011 z
b11000 .
b11000 '"
b11000 /"
b11000 -
b11000 e
b11000 %"
b11000 +"
b10100 /
b10100 f
b10100 y
b10100 {
b10100 0"
1"
#305002
0"
#310002
b0 %
b0 -"
b0 6"
b0 =
b0 O
b0 l
b0 &"
b0 )"
b11111111111111111111111111110110 >
b11111111111111111111111111110110 C
b11111111111111111111111111110110 #"
b1011 +
b1011 7"
09
b11111111111111111111111111110110 )
b11111111111111111111111111110110 g
b11111111111111111111111111110110 m
b11111111111111111111111111110110 ""
b11111111111111111111111111110110 2"
b111 &
b111 4"
b11100110010010110110011 5
b11100110010010110110011 p
b11100110010010110110011 z
b11100 .
b11100 '"
b11100 /"
b11100 -
b11100 e
b11100 %"
b11100 +"
b11000 /
b11000 f
b11000 y
b11000 {
b11000 0"
1"
#315002
0"
#320002
b1 %
b1 -"
b1 6"
b1 =
b1 O
b1 l
b1 &"
b1 )"
b10100 >
b10100 C
b10100 #"
b11111111111111111111111111111010 B
b11111111111111111111111111110110 ?
b11111111111111111111111111110110 E
b11111111111111111111111111110110 }
b1100 +
b1100 7"
19
b10100 )
b10100 g
b10100 m
b10100 ""
b10100 2"
b110 &
b110 4"
0:
b11111111111111111111111111110110 *
b11111111111111111111111111110110 h
b11111111111111111111111111110110 |
b11111111111111111111111111110110 1"
b111 '
b111 3"
b11000111010011000110011 5
b11000111010011000110011 p
b11000111010011000110011 z
b100000 .
b100000 '"
b100000 /"
b100000 -
b100000 e
b100000 %"
b100000 +"
b11100 /
b11100 f
b11100 y
b11100 {
b11100 0"
1"
#325002
0"
#330002
b0 %
b0 -"
b0 6"
b0 =
b0 O
b0 l
b0 &"
b0 )"
b11111111111111111111111111101010 >
b11111111111111111111111111101010 C
b11111111111111111111111111101010 #"
b1101 +
b1101 7"
09
b11111111111111111111111111101010 )
b11111111111111111111111111101010 g
b11111111111111111111111111101010 m
b11111111111111111111111111101010 ""
b11111111111111111111111111101010 2"
b1000 &
b1000 4"
b100000111010011010110011 5
b100000111010011010110011 p
b100000111010011010110011 z
b100100 .
b100100 '"
b100100 /"
b100100 -
b100100 e
b100100 %"
b100100 +"
b100000 /
b100000 f
b100000 y
b100000 {
b100000 0"
1"
#335002
0"
#340002
b1 %
b1 -"
b1 6"
b1 =
b1 O
b1 l
b1 &"
b1 )"
b11111111111111111111111111110110 >
b11111111111111111111111111110110 C
b11111111111111111111111111110110 #"
b11111111111111111111111111101110 B
b11111111111111111111111111101010 ?
b11111111111111111111111111101010 E
b11111111111111111111111111101010 }
b1110 +
b1110 7"
19
b11111111111111111111111111110110 )
b11111111111111111111111111110110 g
b11111111111111111111111111110110 m
b11111111111111111111111111110110 ""
b11111111111111111111111111110110 2"
b111 &
b111 4"
0:
b11111111111111111111111111101010 *
b11111111111111111111111111101010 h
b11111111111111111111111111101010 |
b11111111111111111111111111101010 1"
b1000 '
b1000 3"
b11101000010011100110011 5
b11101000010011100110011 p
b11101000010011100110011 z
b101000 .
b101000 '"
b101000 /"
b101000 -
b101000 e
b101000 %"
b101000 +"
b100100 /
b100100 f
b100100 y
b100100 {
b100100 0"
1"
#345002
0"
#350002
1;
b1 %
b1 -"
b1 6"
b1 =
b1 O
b1 l
b1 &"
b1 )"
b10 A
b10 D
b10 c
b110111 6
b110111 x
b110111 !"
b110111 >
b110111 C
b110111 #"
b101111 B
b101011 ?
b101011 E
b101011 }
1(
b110 @
b110 R
b110 j
b10011 o
b1111 +
b1111 7"
b0 )
b0 g
b0 m
b0 ""
b0 2"
b10111 &
b10111 4"
09
b101011 *
b101011 h
b101011 |
b101011 1"
b101 '
b101 3"
b10011 0
b10011 i
b11011100101010011110010011 5
b11011100101010011110010011 p
b11011100101010011110010011 z
b101100 .
b101100 '"
b101100 /"
b101100 -
b101100 e
b101100 %"
b101100 +"
b101000 /
b101000 f
b101000 y
b101000 {
b101000 0"
1"
#355002
0"
